,PatID,"$RadiomicScore_{LASSO,1}$","$RadiomicScore_{LASSO,2}$","$RadiomicScore_{LASSO,45}$","$RadiomicScore_{LASSO,11}$","$RadiomicScore_{LASSO,37}$","$RadiomicScore_{LASSO,36}$","$RadiomicScore_{LASSO,4}$","$RadiomicScore_{LASSO,44}$","$RadiomicScore_{LASSO,21}$","$RadiomicScore_{LASSO,5}$","$RadiomicScore_{LASSO,9}$","$RadiomicScore_{LASSO,3}$","$RadiomicScore_{LASSO,6}$","$RadiomicScore_{LASSO,7}$","$RadiomicScore_{LASSO,43}$","$RadiomicScore_{LASSO,30}$"
0,1,0.1749493726187455,0.4707346078065144,-0.0590744539641069,0.7744831640913512,0.663340657537538,0.6965986310796786,0.132451113607075,0.5786845476602649,0.2953589051317783,-0.2720919953653229,-0.1688366363629851,0.1519052010105996,-0.0832981268282713,0.70308804229139,0.4000993073863749,0.291787161065617
1,2,-0.4985059382972351,-0.4479544037008259,-0.0741794551009819,-0.6952156267089541,-0.6169447151760219,-0.6313621851769152,-0.4228160379657837,-0.414709469734736,-0.3178145757135939,-0.3594520944567103,-0.2595154327591484,-0.4402148259434361,-0.0365232929212386,-0.5670934245448854,-0.5844875078710264,-0.3948267522079821
2,3,0.0028865748369239,-0.1710849809217788,0.3688546777039789,0.5762753053480847,0.1490961236990643,0.1537649043334836,-0.1682043445649376,0.1288345931740582,-0.1721212110469021,-0.1533927743305947,0.2804107980966521,0.2212031951954383,-0.064140116041831,-0.3925149137823607,0.081861053966519,0.0463791224034672
3,4,-0.0119428776749542,0.3494536758229741,-0.0892097012610238,-0.2176755985171957,-0.3413349877638617,-0.3507529561312551,0.2188200908924343,-0.1652130938658153,0.4235014367205879,0.0537203836075617,0.2554689391439643,0.3714878893748853,0.3776327410586246,0.5464787776212764,-0.3192739460883151,0.7686066947146769
4,4_2,-0.6398431724150474,-0.4679498151402251,-0.2668695851202564,-1.1997798326353233,-0.7064249767870974,-0.7278872529030298,-0.6653302020763517,-1.0178584622553946,-0.3492760001617789,-0.4069710013712275,0.2899206823060505,-0.3337693316155446,0.199267557018613,-0.1901201400632166,-0.6857099408543588,-0.4017457690388272
5,6,0.218854555426766,0.522289860641694,0.3160731188340096,-0.2055593600874336,0.0555955817416423,0.0641592981279499,0.2490840225427388,-0.0695148044818475,0.5607438615283343,-0.2120602336735961,0.2228763440244586,0.3861819006988891,0.3994420169793652,0.5578795787319336,-0.1105150069047055,0.1040521190827234
6,7,-0.4534551412499862,-0.5491900821643998,-0.197913161516131,-0.2626653662073379,0.1214611722930374,0.1305168917439491,-0.5883938415620319,-0.2371124542638395,-0.6722579548773542,-0.5136809019563795,-0.1925034054796269,-0.4347059026296237,-0.5108220151618511,-0.2504407323573505,-0.0037860925669798,-1.1928659880680574
7,8,-0.9290470305980976,-0.9813747005724508,-0.6319255394315378,-0.4941042436274016,-0.158418608632989,-0.1548767323158147,-0.7367637201983299,-0.3168083990444659,-0.6744704549664646,-0.450048178945619,-0.1529956958142375,-0.6364260666673563,-0.3233256467442365,-0.7540686319215677,-0.2422481899731792,-1.078389616849739
8,11,-0.1291995897280863,-0.2282027755585877,-0.3775465677367634,-0.2758726518418686,-0.2971375286247532,-0.3048922262690332,-0.2538429779259882,-0.607298228401924,-0.144431118381859,-0.3144138319758087,-0.2643019814989151,-0.3979360044332406,-0.1846805300279587,0.0655105050935062,-0.3789552609121999,-0.0617831187251655
9,12,0.8831074812639629,0.5677235162194947,0.0883815777354785,0.6711269486228566,0.4588685747587953,0.4695778752266528,0.3901543403443439,0.1639133333687321,0.9103628292134704,0.3457325291796752,0.179873675063769,0.4381599556874833,0.3901955450185509,1.092180870407743,0.2112364687260391,0.5984584791671136
10,13,1.352911975666183,0.688171388056513,0.4773776946776313,0.9233131585563684,0.6306266720770999,0.6447039037021699,0.3877688424361178,0.9000995409002287,0.2502752534388305,0.596207878853186,0.1455228817714456,0.5722279350038452,-0.0362155587651282,1.2196284030357671,0.6925819162109528,0.8681547458456886
11,14,-0.127356146062855,-0.0919760162067946,-0.2689080978970143,0.3449021051117126,0.4680593143896404,0.4967694137191109,0.0056250018560511,0.4970581855392976,0.0309674667577645,-0.3372390309394297,-0.2481287520420135,-0.1699792323292781,-0.3457729926286058,-0.5044790406553039,0.2722770983701255,-0.4388528669942576
12,15,-0.3963345194673534,-0.5036300862210384,-0.2798722856939897,-0.3952778013799318,-0.353535235015646,-0.3637509066353768,-0.4371433844852768,-0.6333835355434771,-0.7264658003042711,-0.3658252633711035,-0.181017349585744,-0.4702466098715259,-0.4782300464927976,-0.706027464839589,-0.36083253395993,-0.4006051638276056
13,17,-0.5981870814755168,-0.6925445485539563,-0.1486821399781976,-0.815863004581028,-0.6027037879256198,-0.6145557783175106,-0.4982183602753989,-0.5515344818884945,-0.7474132957006756,-0.3892536536311236,-0.5402140026716039,-0.7433430974623054,-0.3747950408137253,-0.8551627755370309,-0.5524421833689621,-0.7245980807534131
14,18,-0.2626107696734535,-0.3202224606994036,-0.432348922225361,0.527715627693223,0.2387602752817587,0.2558070650103353,-0.0765617766988465,0.3539328817062496,0.0214757082972398,-0.2735495490795697,-0.3916862716873101,-0.1399281906100465,-0.2648356166967568,-0.4690740229266073,0.1676552221987525,-0.2326586346022618
15,19,-0.5509085410623753,-0.5035062256067007,0.2700743854906946,-0.3408101458631526,-0.2697552433676974,-0.2665625653895014,-0.1085683607729369,0.6020239578384767,0.2110915996981726,-0.0845242003098682,-0.0615258521001042,-0.0373132358654973,0.0849791057772485,-0.886890829610935,-0.1581037250241984,-0.8545326679981547
16,20,-0.4627606539107781,-0.3228701124648871,-0.1252696996700829,0.1377707406081039,-0.3674299656286077,-0.3818896243086259,-0.2368565058068987,0.0514193993278143,0.0390303248379354,-0.0672716657288901,0.4519849762732311,0.4228628407387864,0.1457811727943599,-0.4989400918368199,-0.2733005680128905,0.0697484689819406
17,21,-0.5238952630785179,-0.4586872617302101,-0.4115286110468289,-0.2787649806388021,-0.2862130569963825,-0.2928432510675968,-0.2275917045957279,-0.0359705579980574,-0.299295574685669,-0.0200081666543116,-0.0200204829482925,-0.1038330510906263,-0.1249396531725902,-0.3907122765115235,-0.1842268778797757,-0.4401505330343345
18,22,0.171934895536006,0.4032947355916211,0.2453517195423071,0.775637939140862,0.5441883715586393,0.5760581599728646,1.5656442949665847,2.116715737827025,1.2579811518495478,1.923168319830296,-0.0183471241019621,1.03962417715164,0.4013266779505516,0.1952371598170746,2.029987643522053,0.2262285289848307
19,23,0.3195711664931835,0.2901514182038853,-0.1585458203475565,0.8673521770125749,0.6834490649355661,0.7138705481272154,0.3303271693753704,0.6296401102962682,0.2557777292327837,-0.0504498106831176,-0.0997028565463312,0.1933843623025584,-0.0876480161689206,-0.090949939227265,0.5819571565278039,0.1647006374359561
20,24,0.0097774041644215,0.2272910034619085,0.2192656661811077,-0.1979209672148222,-0.1553019247384229,-0.1508106250929487,0.1063876273868033,-0.074745968869805,0.5325292302700729,-0.2247421044988985,-0.2214452065161314,0.0692220921239067,0.2212357096304286,0.4038970847937784,-0.2412577052893792,0.0067718498373178
21,25,0.0506995582308114,0.3906073657889826,0.2901449136281514,-0.43479160305778,0.0833809084017433,0.0998630162100901,0.2737146819080172,0.1760321129136439,0.367781030935457,-0.27476831766547,0.3687941709504931,0.1429513397250516,0.2686723725159373,0.3279605162742922,-0.1031449582081823,-0.1175513871759027
22,26,-0.0099660631108361,0.1402637677762843,-0.1961556714880259,-0.3550128633330031,-0.4784174748588395,-0.4900432929365211,-0.0537048194302441,-0.6607502450724845,0.0745797782418322,-0.2411840841172055,-0.1069767630043115,-0.0663706213940728,0.1056610331588096,0.3563624983958281,-0.5085384085577437,0.6253890005148289
23,28,-0.0245162817165392,0.133894069382399,-0.1255150089067965,0.3606535263710605,0.3765895517238923,0.4015594932046198,0.3381952096194178,0.4246145256642323,0.1112935454742515,-0.3018652060546725,0.1043953065899523,0.0394439041843787,0.1042509671907047,-0.006818332175579,0.1387731743960312,0.0274023978192221
24,30,-0.2668320107097163,-0.1504578243364329,-0.01911663721992,-0.2353900085196221,-0.4286676939552808,-0.4410118517632925,-0.2829777826571449,-0.6167424072818054,-0.3890604603532484,-0.2789958938636762,-0.0377204732716287,-0.0378468592202223,-0.2017615391067519,-0.2304543952802866,-0.3335889144522861,-0.2251249946438887
25,31,-0.1109702718405152,-0.246441993327463,-0.2142106248651061,-0.8122410810924796,-0.8584685037411216,-0.8881935640520432,-0.4101997406016386,-1.209604794528517,-1.0335253992866205,-0.4285689358812619,-0.6446348017686716,-0.7582036748765462,-0.639271759306515,-0.0998484220858384,-0.7838876483975555,0.0744908824363311
26,32,-0.8641989662431988,-0.8057654415256466,0.7794274309656349,-0.95341827031662,0.1380635320664742,0.156010167373488,-0.7011291892111934,0.2064653906835037,-0.4128052606741391,-0.4828855180132777,0.1155864092011297,-0.4513065808084215,-0.1693309545292444,-0.8956041191328457,0.0424908807774741,-2.0890494289582207
27,33,-0.2245286103966395,-0.0677532081516674,-0.1830774475629344,-0.1029601828511301,-0.2744598851423827,-0.2778387219041696,0.0208295845844153,-0.2032698036744304,-0.324715826168821,-0.0729655207644895,-0.0676040470439251,-0.079283386181032,-0.2509898435270133,-0.4716119541106292,-0.1766935421783871,0.0277833015058867
28,34,-0.8520234300718695,-0.8199565514412156,0.6504190180331755,-0.9946381277567288,-0.4574494023926961,-0.4636355750828254,-0.5802219832331442,-0.0028784506302802,-0.2890644554922038,-0.2920105937495839,0.0086495330553632,-0.457093743745959,0.0902395235541954,-0.9397540689929906,-0.4076048162801357,-1.0573684322715435
29,34_2,-0.5509398829036952,-0.6129894799620008,-0.2025650738766872,-0.9059615432871702,-1.266990298083316,-1.3108149679952854,-0.5635996148410237,-1.2508291225086858,-0.7179643704099035,-0.321475755594871,-0.4848140092659079,-0.5389400440821027,-0.2444765762053138,-0.613362918835314,-1.013859267889626,0.0105584959792403
30,35,-0.3155307823092918,-0.0157281087925237,0.0214134798087681,-0.1879486909247401,-0.2585967838037328,-0.268894946852608,-0.2448578924142825,-0.0240944683464965,-0.1357087665743988,-0.1017844021182989,0.2523309522515932,0.1761660816073791,0.0812519336602028,0.4677527422963909,-0.2383454005330687,0.0107493598892803
31,36,0.0973033472763109,0.2745385925480111,-0.0771717216180893,0.552773964518275,0.3884437263719325,0.4116593270703028,0.2399875208405764,0.3275281527073742,-0.0900650262071125,-0.1462310015993954,0.1611189079657979,0.2369541527748553,-0.2844814467771637,-0.3172367340938841,0.3283396699554469,0.0086218077231069
32,37,-0.1239697307501093,-0.2860811520122762,-0.4335474539575715,0.8787440335874024,0.4601214640282202,0.4835852278939195,-0.1016663386997282,0.540268988897165,-0.0091455232173804,-0.251055949667604,-0.298336814134894,-0.0342413655692725,-0.1570323105629916,-0.3674321065801432,0.3041868705885467,-0.0943849113680473
33,38,-0.5879461785404052,-0.5926230647942513,-0.1500273339946817,-1.7167482103149785,-1.501420752163065,-1.5525457006375931,-0.69022597268557,-1.7931559257707554,-1.192590278061919,-0.3949619006881795,-0.4266281816860207,-0.8457619590449679,-0.4524924600591793,-0.5871560709997142,-1.2518557442987277,-0.2566674421988471
34,42,-0.924373417066684,-0.9019333196202348,-0.3335269372509036,-0.6423431443097556,-0.425874849869183,-0.4333302666216215,-0.7631137748887395,-0.5227034604569873,-0.3604984604619211,-0.3869929304867286,-0.188936368661939,-0.4307091673837797,-0.2324022074103326,-0.6191271034562337,-0.3863886675744906,-1.1384289428894676
35,47,0.6394796784482988,-0.3327207094117914,0.562040495418313,-0.0213971177057118,-0.116935472755363,-0.1302877269481316,-0.7620672643255295,-0.5161209176462235,-0.4577205872960935,0.8249275854602013,0.8466270794458903,0.355446313588607,0.0275611489781144,0.116537557121434,-0.1784936856444152,-0.4011308253778049
36,43,-0.2298239320430795,-0.2013977134644368,-0.364683322788797,-0.2101980096105578,-0.0777424390907349,-0.0703329111548985,-0.1551844993835903,-0.1555905660788532,-0.5396819758231417,-0.3744929763827926,-0.4060621450149127,-0.4509951736945089,-0.4815407641429204,-0.4749960054192412,-0.1694383148473676,-0.4180783648766856
37,44,0.1122839171193447,0.1267483972383088,-0.1737846107640785,0.5011909432627033,0.5464886303521463,0.5805958861075873,0.4464919575410077,0.8402627056176544,0.2134107043230847,0.0517316542283273,-0.5105473776540361,-0.0966337974344536,-0.2518383687144255,-0.378252392141608,0.6045062846290726,-0.1504429207815337
38,45,0.058121300401939,0.2719422898120985,-0.0094726053359992,-0.2688920010125234,-0.3949772848013587,-0.4076496340870327,-0.0626394390953875,-0.6165206520132209,0.1620501714272213,-0.1840090125818778,0.3558953479969695,0.244818109942553,0.1590927461033821,0.4315416268322466,-0.4439129688088602,0.5201866829928692
39,48,0.1389977951212017,0.5720008569158502,0.6025383947364644,-0.9655163962190406,-0.0428385693728671,-0.0332408369816226,0.1671771861768892,-0.1039845604329601,0.4118530889572019,-0.239967791661588,0.3135565065879825,0.1991645809245668,0.2996961725964815,0.5329828126047312,-0.1970079448122839,-0.537467820770224
40,49,-0.084500389765384,0.1382151555470061,-0.0519436026104195,-0.560057504909087,0.0206100870229215,0.0353700332062736,0.1450907697401863,0.0081693981719583,0.3801604498555884,-0.2998711121415151,-0.143913960296139,-0.0935304223958092,0.1489661982677884,0.2833301947399332,-0.1455252197421881,-0.4309423384804657
41,50,0.7340612778163317,0.2143799583593533,0.2012250345693505,0.6724484886953962,0.0326320723717644,0.0279786104879755,0.0228915238524629,0.3556734179597966,-0.0877703275749295,0.3833110288429906,0.2059162455955738,0.4344531197605897,0.0318769492309545,0.2710355919239523,0.0140277140555281,0.5713219441457311
42,52,-0.2109624235799413,-0.0593230103958086,-0.1614777204782709,-0.0531724495931523,-0.4128758699489805,-0.4214644206362837,-0.0752649556610581,-0.2188766831339803,0.1594190883865142,-0.0893358475751707,0.0212204798508886,0.1194213604628032,0.0932856635120096,-0.0336685131830715,-0.3768872912867037,0.1404425283105228
43,53,-0.4030483809466127,-0.4289305196797362,-0.2361366033672518,-0.4566003196890486,-0.753194190178213,-0.7771295818228868,-0.3025199165748349,-0.8723210709773842,-0.5946714602564452,-0.0637234706449366,-0.3120318864292417,-0.3996900772539716,-0.3831678256571899,-0.358767987079413,-0.5431017146949914,0.1203466029017518
44,54,-0.1418333426275413,-0.0587701691708378,-0.3075721148880124,0.009130850348991,-0.3537423934350192,-0.3609033781963315,-0.0866264937090829,-0.3568538385721716,0.0452147021495679,-0.1507209537988056,-0.3298125754695331,-0.1605833509984372,-0.0441833391424272,0.2329594540896547,-0.3560925967232158,0.2708061705923911
45,55,0.8253569580052837,0.0766703265209169,0.0517310188129247,0.4081610876459079,-0.2255068272059598,-0.2418502473724083,-0.0727941740890097,-0.3684558419645101,-0.3786313468352254,0.5439765869177954,-0.1535821825031513,-0.0336563633125639,-0.2222858467187095,0.4115071560833136,-0.1864851395901081,0.7947715988339781
46,57,2.306706428066475,0.946573530307496,0.6074957165276798,1.331824375645916,1.0118560280944655,1.029303090852457,0.4424931941463134,0.862637401790344,0.3605099838028846,2.153633988151814,0.2513115590594052,0.580617687027409,-0.0015442333025548,1.5218254283386186,0.8435826436508007,1.1677150463777604
47,58,0.0080835325734476,0.0572671685754564,-0.0884320710828675,-0.0707404113862927,-0.3911939696457717,-0.4046662355059081,-0.2600633089628525,-0.6317578605676594,-0.3920918731010276,-0.401692074748561,-0.3802293968052691,-0.3527154309168323,-0.2091842451304505,0.5823666988616977,-0.4244549258987941,0.5513335841052346
48,59,0.2848350355591468,0.333805336362642,-0.0712579916669817,0.7029189335416058,0.5929379984423617,0.6190170923792152,0.4354383090925147,0.9127650472351054,0.1667737000215204,0.1792246818726811,0.1455814376923358,0.476803985494669,-0.0776606057396301,0.0124265295648961,0.6909184636002993,0.1264247832888584
49,60,0.3110861435024554,0.7812521453538924,0.1373673785319113,0.3482146846106184,0.0728976155362963,0.0832480233181111,0.3964838877747769,0.0510686398629548,0.7069331160385646,-0.0924718326085164,0.6107019950706575,0.7520469793537954,0.4575758472495876,0.81623123217255,-0.0830966624723317,0.647463107315429
50,61,-0.8646177150134726,-1.1349981175828228,-0.5029316317394577,-0.240851952762604,-0.0532784399696364,-0.0451400825357785,-0.7877978398251921,-0.2591800528963959,-0.82698311866965,-0.4831449353413778,-0.8654790702570482,-0.9307042382286376,-0.6782679003671412,-0.7652527088266219,-0.1217193529339814,-1.4413115061943496
51,62,-0.370375106559918,-0.3020929056798501,-0.0096650435289318,-0.8845944969234477,-0.543497884527419,-0.55423832249789,-0.3001642514038577,-0.7241054946633368,-0.5699575901302588,-0.4505989657461287,-0.0736336935887369,-0.4462708188589692,-0.3849004994588504,-0.6518764978200794,-0.5575238688805365,-0.580726535170139
52,63,0.397045662995037,0.3696046650632691,0.0356145616950494,0.1820494620756691,-0.1960867096460273,-0.2078166236021573,0.1362053764264466,-0.0021871705098632,0.6274416684434041,0.4160537268264668,0.6260782367635762,0.7486136342735084,0.3755535706999456,0.6032583330310388,-0.1840534158728877,0.8172503414223132
53,64,0.1303581852187973,0.3280372286478569,0.0382322777045793,0.7201396861351786,0.648349799825693,0.6738449613317368,0.6679251937309734,1.5510146940774687,0.677172846693321,0.6369729202782872,0.5998117983861523,1.0025367380667112,0.2242599708450699,-0.0780968150838861,1.04467180744031,-0.0033597799997491
54,65,0.920017699029484,0.81423440756263,0.7421103799657823,-0.0653139011979382,-0.2473043164037085,-0.2638070583687566,0.091883126796917,-0.6383090733181814,-0.2274333151694737,0.1073815659610067,0.7957586348054725,0.5203988847804,0.1844701889661973,1.251016931897251,-0.2363833437144745,0.9181390468134774
55,66,-0.4553154671471511,-0.4122303362909564,-0.4745577209023259,0.0419744979141979,-0.2092884498241661,-0.2102996420403739,-0.3308821357931773,-0.414390290944223,-0.1623449972890586,-0.3654542485630562,-0.3670547264775983,-0.2309112346432567,-0.1184894798284437,0.0655473277154984,-0.3004504377119407,-0.2563100351008629
56,67,-0.0849552011997581,0.2663019631207625,1.07936031546459,-1.0436788832051511,-0.1798920415864942,-0.1731800643204711,-0.0105174223305358,0.0585484265885383,0.6179013367505619,-0.2605218587156861,0.2109570131667796,0.0845855164907344,0.457397342068709,0.3190261820779012,-0.2891169501151382,-0.7330437471656217
57,68,-0.4167498257510822,-0.2816901519848429,-0.185592569796149,-0.792763742398745,-0.5290005645555093,-0.5395292776514754,-0.354055548670058,-0.6349051942927127,-0.1600446283782536,-0.2979680174054526,-0.2326934269731655,-0.2887374055867608,-0.1485628504500125,-0.1825038716269978,-0.4761141368279389,-0.6732276631194659
58,69,-0.1404670612385238,0.0613826138957983,-0.1057254795297411,0.2996385074651312,-0.3994806939453191,-0.4106373266499235,0.1099977164898562,0.3694245969850347,0.3404483820269198,0.1440875502037166,0.1298125867607945,0.5799472859355828,0.1844209359332222,0.120495496740222,-0.2745482513536831,0.5861129339339294
59,71,-0.9385457150180744,-0.1029477361687548,-1.4735976631412202,0.5122435809323626,3.891675589440058,3.72213246179006,0.9308052747551758,-0.3812550780530469,-0.894881451090078,-0.413625414830927,-0.6957873398460672,-2.6791317000448505,0.8047487036077852,0.3107473470418769,2.730038640887164,1.2529807332029763
60,72,-0.784228739429695,-0.8598618269505861,-0.5947610067584717,-0.5284433230105122,-0.1883359718044431,-0.1927182221372523,-0.7285619165565812,-0.4980920584442712,-0.6503460440542196,-0.4670457948306723,-0.1818347042322186,-0.6841400067408744,-0.2327750690814531,-0.5442468720570924,-0.2885145982187654,-0.9425663733247605
61,73,-0.1437627061978744,0.203790225095906,2.0755867837115174,-1.5460723835681929,-0.2700358485931829,-0.2658634617359186,0.0467040738521721,0.5512918203783516,0.7094228854553398,-0.2206427464172969,0.4589734043356318,-0.0911436957192272,0.7922708326704029,0.0204709442698583,-0.3437583310583744,-0.8457378338886368
62,74,0.0542648237552147,0.1576269946134095,-0.1776203091778846,0.1442638285129595,0.4724605232937039,0.4971459715219781,-0.0186839419084613,0.212176815243079,-0.2362004969824846,-0.4085595677068461,0.0792982037639858,-0.0590880670644253,-0.386773072542528,-0.1861864290605151,0.2087384746861505,-0.3401669274835982
63,75,-0.096444797271079,-0.1042027694764625,-0.3297542873389624,0.170401649066558,0.3425037604302834,0.3603187018959488,-0.1036414384314131,0.1562701735571962,-0.1246219353580832,-0.3376621839542396,-0.1366984624312328,-0.1910767341325189,-0.3067200289204725,-0.2570878993257561,0.1732573495305693,-0.3498508498960061
64,76,0.6218171531577467,0.7629960793304795,0.2345501555819052,0.8755036844016387,0.7789678388015895,0.8075994560604567,0.59692429859613,0.4559935632889215,0.1992244956336983,-0.2017563277341404,0.2312965074280051,0.3656119993614647,-0.1046074415060766,0.8776131101244948,0.5115714880882923,0.3070359608579897
65,77,0.1970553924852967,0.1652754992038587,0.1427609687533753,0.417452520251807,0.1082664690007632,0.1098456215136846,-0.0485320910788418,-0.1215340861406377,-0.4093484773872904,-0.0740322541216694,0.2856504891706283,0.1591972770906855,-0.301628230069193,0.2402229646034469,0.085902814119932,0.3842540826626522
66,78,0.4085890513871342,1.5648747115979935,-1.1749683507991853,1.63555939065249,4.274976579956616,4.121171349297652,2.288425686363404,0.0003118826630707,-0.052117108294233,0.465705249910723,-0.1062247074318664,-1.553720977590788,1.068782740053278,1.633323064526478,3.147496492557675,3.704615243687476
67,79,0.1006919025196787,0.2059209774405519,0.0038600599207086,0.3057356075077461,0.1208253648978987,0.1278368207740567,0.0478241841489039,-0.0440845381029315,-0.2003506094241905,-0.1672875914979725,0.4416095695040373,0.3157834920549474,-0.1941013382172575,-0.3738504980938447,0.0574430436428163,-0.0149140222875095
68,80,-0.0305820036832516,0.3056021718690989,0.3944914930656497,-0.152472244628273,-0.3961803464726633,-0.4025481440369024,0.0833032775758482,-0.2445851509972991,0.5563176194229723,-0.241327154595556,0.5646963067363545,0.5336666485792585,0.4524060636726119,0.0406272353240077,-0.4342513483393604,0.3816501797700257
69,81,-0.2700703861620624,-0.1452759444482669,-0.1172771824438971,0.1405561972093869,-0.359882704403661,-0.3682044724265312,-0.0219937246957845,-0.0995551964269875,-0.234275495304719,-0.0609157470351675,-0.0056606379853581,0.0918202626262263,-0.1006127857207359,-0.4511081341427277,-0.2423638305558918,0.0208447596331365
70,82,-0.0968872690712728,0.1217305057024839,-0.1894448134609174,-0.2798352088972078,-0.457247829012427,-0.4658079304813641,0.0381033744676515,-0.3409926123113199,0.3572375890129257,-0.1242513329399572,-0.1463150056752104,0.0104203526509312,0.2143053860451517,0.3876605851381398,-0.455369366430793,0.5502848213400786
71,83,-0.5329012792036317,-0.6387569692757364,-0.3766927899977894,0.6550241921613124,0.5227198106988752,0.5520998557097185,-0.4455977046842762,0.4589879611553975,-0.0473142294841993,-0.3652375344836941,-0.2438331279018432,-0.1049930485357168,-0.2510037339561161,-0.4664200451813449,0.5112740012038838,-0.8493760953400623
72,84,-0.0532951786122158,0.1985202247698099,-0.0092947981148284,-0.5168346341768539,-0.3375048247167126,-0.3501902495656934,-0.2616497153979927,-0.7030227411733548,-0.1991823246072619,-0.3130245976667191,0.4333568934331446,0.0684276565767551,0.0128373124711621,0.3363765865126695,-0.4098360880608676,0.2383636818926399
73,85,0.2125970922646533,0.1907034517978451,-0.141603944221554,0.6997169015201534,0.6611157882094442,0.6940430699378596,0.4339119049977198,0.4672501421101824,-0.0441693575702669,-0.3838267377913784,-0.2217398130121862,-0.0026099582618625,-0.2480436596114589,-0.0145898701857559,0.3370861813307431,-0.2606381785635979
74,86,-0.4909342588590564,-0.4599597072226533,-0.3259051550439307,-0.2324592552428776,-0.3464582781406612,-0.3545033825552279,-0.3916211627731472,-0.4131203562799181,-0.5251639528557215,-0.3699620906121685,-0.1482978637868853,-0.3360720926922484,-0.2363391849436061,-0.521610753492374,-0.3729377733065097,-0.3470712057154441
75,87,0.2553034949981826,0.640166815655049,0.1451241495355408,0.2976073195920831,0.0834335481345172,0.0979482096697198,0.9889348386555668,0.5595076952071575,1.092167112859491,1.3168745689262864,0.1225379672387894,0.782376201058914,0.4076031493750657,0.684790703906268,1.0847363167901167,0.8627635675927317
76,88,0.0997297343102928,0.252673062461963,-0.1511638767743834,0.8419547257661613,0.605459074833682,0.6410955223337492,0.4660183890342522,0.934054794505784,0.7366178962871021,0.1731605912321871,-0.1819310257015808,0.3200535279691914,0.0338430343861481,0.0955616135015432,0.7163953062768976,0.1619456513055999
77,88_2,-0.3973913825472214,-0.5856960568562496,-0.4789227573801874,0.097832352023107,0.1002048149905935,0.1161711043720217,-0.2181863547833663,0.1744772672653192,-0.2176584942993526,-0.3292145410094836,-0.7591590387377457,-0.6444821306217391,-0.3684098165145688,-0.6888099678771464,0.0222742230061101,-0.5872999984377335
78,89,0.0814751595713015,0.2327191938641497,-0.2991362370524774,0.3080578489535273,0.6305109810768863,0.6635456766429975,0.0103707014280498,0.4067618133289473,-0.0222926744777656,-0.3490742509998618,-0.2664387918942214,-0.1481468061979378,-0.2736466154473762,0.3251231524888721,0.3326110259366409,-0.0952779773237571
79,90,-0.1804423700518723,-0.0440598100135124,-0.2289251141451822,0.402974657085783,0.3686452344086794,0.3890619554193062,-0.06122744634955,0.2010269142472207,-0.2550883328944469,-0.2891788024919317,-0.0548908859933979,-0.1221865300175549,-0.4045036569508279,-0.1628714541515679,0.2436737157799437,-0.4975040026895938
80,91,2.896235960753032,0.2896036539047227,0.8332804959684194,-0.1990319132054472,-0.5126273606713846,-0.54709828207393,-0.5096393475834874,-0.9587555157365488,-0.3488818939546707,3.388983048070786,0.6015036672145285,0.1926350665317026,0.3838608595868642,1.0613109427137384,-0.5312257009680722,0.9564630221851844
81,93,0.3870934662620426,0.4167979954258109,0.1681053964748486,0.2590662725275517,-0.1399634403034046,-0.1441129213579139,0.2187465378978132,-0.1526945462512554,0.6970193081033924,-0.0271623949002373,0.4793977931135156,0.556239728240869,0.5030520411233913,0.423925009645106,-0.2496801339027749,0.7697589744389354
82,97,-0.5633935930090682,-0.3857112720700734,0.3708788457100709,-0.7305699181415254,-1.0120403458232836,-1.0510381318804451,-0.4078075425173196,-0.5895080279824978,0.3583948271415274,-0.2373116476983874,0.867696828325207,0.4931493876326293,0.5168740991598886,-0.795853999277788,-0.8251652637413077,-0.2308786365520715
83,98,0.2984994619000931,0.3774409250726924,0.7847559356259015,-0.5799613289359243,-0.2987286648455303,-0.3228265157728224,-0.1024562572935693,-0.5325083069610094,0.2881505422280689,-0.043374251134514,1.4339892250199275,0.7188306084014923,0.7266145168988946,0.0941719803572511,-0.382511341182336,0.2353239327543077
84,99,1.0250413536132437,0.5083558195534978,0.6635670469371696,0.3382916199950201,-0.0496847989241879,-0.0657851572837411,-0.0835079250671969,-0.2163652998190424,-0.3784552442535069,0.6640327737015352,0.4409671196508551,0.3343251024933112,-0.0040570565906873,1.1385332005101052,-0.0118585907809431,0.8119876434698463
85,102,-0.2225824041528666,-0.1952113772649446,-0.3212476438489834,-0.495586212238343,-0.6719698878200694,-0.6881494224488801,-0.0017582559046058,-0.5404070367631855,-0.0850309034232401,0.0354530249391927,-0.5203032880615175,-0.3457827319881092,-0.2099363280096627,-0.1189364788905188,-0.5251605391813691,0.131523693227416
86,102_2,0.0897900760669168,0.0448674959850114,-0.1319512089347242,0.2195137839214168,0.4557806189325492,0.4872845268445078,0.1387870307813716,0.6083255187285518,0.2795139175523859,-0.3737916876688141,-0.6406711172647522,-0.3526904322205612,0.0633202148569892,-0.3329746293661338,0.2175407320578647,-0.3601142257754534
87,101,1.4140992678553193,1.1103581963375064,0.6480989523359898,1.1384539024216995,0.5959223606487312,0.6130969414823438,0.7377776105909446,0.5511744546413104,0.7802554831643866,1.1430982721244762,0.6740076314129468,1.0834341755474637,0.5491394884385631,1.263592603176344,0.9451097235693952,1.4313599331920743
88,103,-0.1486464743971988,-0.1081017544575059,-0.2887627323662716,-0.6589138588470311,-0.515514486420622,-0.5256867700158265,-0.0894318429286809,-0.6735862613037781,-0.1575421720220923,-0.3642086937793156,-0.4467525563043459,-0.5056828873255983,-0.2956542157964474,-0.3193994405438693,-0.5278895186431005,-0.0729123728436503
89,104,-0.6317105831187455,-0.5270792156332601,-0.3673515995275799,-0.4361102646029605,-0.2867142376148811,-0.2888558046737811,-0.5472419367734561,-0.5053311164171633,-0.1023833740251768,-0.3485754011688136,-0.1484069017002783,-0.2493387958388501,-0.0866913309472098,0.004565390242454,-0.3528400650234567,-0.7290447225334027
90,105,-0.4731224078085132,-0.3005073607930968,-0.1071918629397704,-0.7085041795905938,-0.6994598333424406,-0.715859952800164,-0.3411395784209248,-0.5250508901392287,-0.2467428762592274,-0.1233201613051871,0.0573060488723865,-0.107718707369184,0.0435804747030258,-0.3335008726865777,-0.5814453947448105,-0.2002968847500425
91,106,-0.2405467431274988,0.052257244841179,0.1726925934354848,-0.8486464206353271,-0.6870380245425395,-0.704673214615927,-0.0308629165242793,-0.7832025296923102,-0.2209094682684788,-0.0538872191760159,0.2992788283901726,0.0168833788383084,-0.0348258908375983,-0.2133188600854985,-0.571540805267099,0.1276948635279444
92,108,-0.119842266547071,-0.0915120331563197,0.2414246666244442,-0.0836003845048858,0.3826179803196735,0.4090309936463362,-0.085378228156819,0.3026043279734808,-0.1684204540199974,-0.4587323411681955,-0.159560469389641,-0.2984402356343599,-0.3223101739791019,-0.6242935009052966,0.1299272840534444,-0.5559787867334106
93,107,0.5737265917930646,0.5037674207972542,0.0255808945794856,1.331259792662718,0.6702305769293181,0.6963498823018097,0.449524571019947,0.8500884608798781,0.4682829113994597,-0.0151063392441617,0.199461887416159,0.6370707357334863,-0.0414781167150497,-0.1076988908107966,0.534500370316715,0.3863874285046387
94,109_2,0.3668695429093583,0.0576557712264727,-0.1147652953311803,0.8881150417898206,0.4897107037572711,0.5098974261962804,0.0401554220883695,0.4481189304185353,-0.0062414961528438,-0.0150099556412841,-0.1333951659415036,0.1048098374578166,-0.1253484519266277,-0.0103955322339202,0.3570005267767079,0.3137375535841908
95,110,-0.2597361259828771,0.0187186844100398,0.3533057100574688,-0.952367388949857,-0.197104484824833,-0.1938952434133835,-0.2040992256612691,-0.2313412492001939,0.1924078047440592,-0.284777343954664,0.0673177516181149,-0.097874358692732,0.2001565778786887,0.2045381897817459,-0.2961686791531084,-0.7791812491481416
96,112,-0.5013653495224472,-0.4849228646591035,-0.1922555668036478,-0.8703268822499912,-0.8017811784594803,-0.824279935610187,-0.4030742960019964,-0.9602012826770312,-0.3693085824591208,-0.3835624486416776,-0.3221867548776395,-0.5428267490141431,-0.1367531994739179,-0.3015628806218254,-0.7523603833214837,-0.11155311177158
97,113,0.4309935495486532,0.6390164422589523,0.3201838706555504,0.906509939713146,0.6805351828591703,0.7165543595276852,0.7105945825570948,0.9894155340045672,0.9888649784456008,-0.1392255055302394,-0.0554779184563838,0.3421328941721294,0.7046166981523799,0.6032905926542977,0.3842262056464076,0.4748167679327211
98,114,-0.2121017751487929,-0.2949347279083117,-0.4887883777575554,0.4783729625863058,0.3747897693065945,0.3942337174579806,-0.032345907276529,0.4302346835368301,-0.0837230826582191,-0.2147927344990134,-0.5424980564279994,-0.3616291536237888,-0.3741832428772714,-0.2123916330110322,0.3032579429019482,-0.1702149604815995
99,115,-0.0186896367754208,0.1913028318760646,-0.0762658259148992,-0.0766837230766306,-0.3093355498979721,-0.3151356525492741,0.1482675804250228,-0.3308466142474303,0.2548609237583212,-0.1042611445096925,0.2988399920907701,0.2786033519320505,0.1615391771500412,0.2265510849754337,-0.333345997203805,0.4455308901314424
100,117,0.8576114209269333,0.8053071934633257,0.2681998432395501,0.7396274580048499,0.0472285694940084,0.0449150366296513,0.486105465047342,0.6686476018282111,0.8142501217863454,0.3452896501113106,0.2797070677583194,0.8981846610605172,0.4766121490172246,1.3172239620518007,-0.0105628057294633,1.2348007535149663
101,118,-0.024827241045394,0.0794380606286249,0.0027672020693105,0.5942202417226,0.0408371235556382,0.0404979699642744,0.3820633426265563,0.7148222123345331,-0.1025085858664707,0.4650469854963685,0.0265694408466512,0.451515927523777,0.0088316715507294,-0.1953156350091976,0.3766541471732278,0.1829851392261831
102,119,-0.2738874876127016,-0.1600542007887546,-0.3536095815165349,-0.2845168168338219,-0.2962060652612882,-0.2994549660080534,-0.2130055516475098,-0.383348872645793,-0.0691451378808569,-0.2908288714793726,-0.1839493522313447,-0.2497559014732737,-0.0907050270054179,0.0611363032116931,-0.3638123809381857,-0.176710598835884
103,120,0.6114241585457997,0.6639923573699106,0.2051305741236769,0.6145826798163292,0.4360523015899655,0.4509868840913056,0.7855860987323472,1.1135051006807286,0.8164534139398141,0.8373451985464928,0.2135753382564491,0.8804609633498396,0.2803982729030029,0.6233109749967454,0.9933112111143364,0.7588101003424642
104,121,-0.6884929767076505,-0.7538429621315094,-0.5327214977672786,-0.0129696807576252,-0.3610481146590028,-0.3671760615939648,-0.5824388742580362,-0.2419065142613011,-0.4961483919887122,-0.3247728407593378,-0.2978285851207554,-0.3355195147956519,-0.0322713273840494,-0.5077875893015971,-0.3744359556445725,-0.3724078662104341
105,122,2.8212653493356017,0.6740484879407005,0.8472250497077509,0.1622098506876981,0.0002711883420161,-0.0232088362085071,-0.2320486485875877,-0.5005534875944074,-0.04209761528437,3.827535684385227,0.8837740845159814,0.6811429403932595,0.3976278282857116,1.5442968539991024,-0.077189661010742,0.7400870948566742
106,123,0.5494170480023781,0.4710357137607321,-0.2620163414056046,0.864350105726513,0.9786851752569308,1.0244413381730135,0.4949357196532072,0.8687235276758563,0.4378028935359224,-0.3153093160139383,-0.4765809768861548,-0.0821431881704013,-0.2381281195724799,-0.1096901411583934,0.6418900101213167,-0.2223685402936111
107,124,0.0319239131599647,0.1413075914842989,0.0811873985085988,0.3014206395485898,0.4973905477246524,0.5302539099758508,0.235603150768993,0.7778155955696111,0.3005286599421146,-0.1306952932960212,-0.1416349811243663,0.0675101203648967,-0.1298325103836307,-0.3224860586699415,0.4169605538344071,-0.224016866851789
108,125,-0.901855043834452,-1.0903473509994015,-0.2212070018854746,-1.3129889387469391,-1.2697172203362832,-1.3141575585917589,-0.9079763553741704,-1.6172555497332912,-1.0406875557349742,-0.4597797111046379,-0.1622033525369226,-0.7595620565184493,0.0307486935817184,-0.7268738706781119,-1.0972905374905173,-0.5080913091118564
109,126,-0.2438472914013334,-0.2640295238101758,1.5650010191791803,-0.075498772063604,0.4607780975403558,0.4954572934875219,0.1893597390044899,1.7190185898810613,0.9146044031855984,-0.0003004482986599,-0.2824902585310756,-0.0835696975005409,0.4479538618849682,-0.6247622513113822,0.5180697966619244,-1.1607701723986
110,127,-0.7756075056408707,-0.5752624007454408,-0.2306019452134758,-1.138362639131483,-1.2258475197027427,-1.2672636161462645,-0.6974407909294096,-1.204207422655614,-0.5104902581176404,-0.2768550709581967,0.113873076028502,-0.2472164303757521,0.0629406731336762,-0.3503152777743003,-1.0143312400357385,-0.020877529084589
111,128,0.5994924619841409,0.6035221519766747,0.1653623228030433,1.3028589363150207,0.6843637040516302,0.7106227438640621,1.015358662952878,1.8379728510923936,0.7041535978099597,0.9072893190324076,0.3415810621983648,1.1807614655776686,0.4692467350368746,0.0040520183381691,1.2044526337663932,0.5903332538261633
112,129,-0.356726371812593,-0.4185129022044254,-0.1212564206312694,-0.8170999365561648,-0.721477185944247,-0.7403145566421645,-0.3761282273767528,-0.9407285115411084,-0.6636519361175504,-0.3967158336998166,-0.6666240747503578,-0.7802626538417473,-0.4309336170816654,-0.267860595580645,-0.6808382118309895,-0.1419903309488424
113,130,-0.3446410340033879,-0.5179025918446467,-0.2602251915848934,-0.3089024491265209,-0.7625100804696946,-0.7897308998876081,-0.4068159271258048,-0.7810126804723514,-0.5663339889990394,-0.2352742455985056,-0.2082735478329723,-0.2716196310796057,-0.1100737921999011,-0.4931771639378018,-0.6623346444467277,0.0935008290638906
114,131,0.0042988430392785,0.0587342233632332,-0.3799964515760521,0.520681798729101,0.4249818436051341,0.4494804260727612,0.2434843415459408,0.5582388944506081,0.4445233328224182,0.0591398732168131,-0.4327580951440757,-0.0176493556315316,-0.0259606790347911,0.1420128959579294,0.5061303968313111,0.1458713899199266
115,132,-0.4810366170493432,-0.3313911096710952,0.2049282760782043,-1.181003003053824,-0.8563607859583052,-0.8791697240955688,-0.1063818910996776,-0.6613156873747195,-0.3276522972760624,0.1744326530846627,0.0326928116512705,-0.2713918129329826,-0.0276952182944421,-0.5658357516465198,-0.5673172547094866,-0.3290240020840966
116,133,-0.8220762200611235,-0.8417991437995405,0.7237603651541735,-1.2391207697683009,-0.3015829115020011,-0.3000277156137281,-0.6970516353657911,0.1577718010006227,-0.2333436544676887,-0.4995568741803824,-0.0728677881593868,-0.7479511570539245,0.133849031653009,-0.965204189116296,-0.381358475250662,-1.3637263962421773
117,134,0.2295738514924394,0.3160355370773576,-0.2646573529934828,0.7313086240148511,0.6327000804547274,0.6682547265873393,0.7053968907762311,1.155103649519053,0.637928552653347,0.4043495067451262,-0.3136033569243508,0.3466967707368057,-0.126950596162037,-0.0404949475625023,0.9097188460925588,0.132762911858237
118,135,0.2967941024675424,0.3145757145451093,0.0192634526287497,1.0472568208639097,0.4670734353402348,0.4898244028675992,0.3131492076428879,0.7206084434377688,0.2638580561011597,-0.1185076753992792,0.1717015995519822,0.4972420035134726,-0.0139082933406995,-0.4856765738643321,0.3882514746139616,0.0115568464746706
119,138,0.0756682906759324,0.4846105265696145,0.0574801012927344,0.0148514012938894,-0.0867761162478788,-0.0832100746935573,0.2463640749398783,-0.122275442211634,0.6977418358649411,-0.09711531721517,0.4363280251000618,0.6500167117777368,0.3473786845572298,0.4760252784502701,-0.1114083175433477,0.1170786422646192
120,139,-0.2708681318542915,-0.2600438096899662,-0.2403920368867237,0.5291754507065992,0.3181050488260436,0.3347310847981596,-0.3061985623949511,0.0925031722198388,-0.4249386517599677,-0.4022737429678837,0.0735154502026943,-0.0896479729875718,-0.2709064258144241,-0.4199896121264155,0.1219234377395796,-0.3565943543321851
121,140,0.7477660382892598,0.5532226564952113,0.0533212281801975,0.2083373476262219,-0.1362984123577895,-0.1441606980646599,0.1074926706337139,-0.4895789961875587,0.128669367051799,0.0055312605624744,0.0022736208722214,0.142389556682024,0.122127098635911,1.0883033046102333,-0.2372692849581854,1.0958675995067366
122,141,-0.4049719914552515,-0.3768168582010852,-0.2650610299457507,0.6707052300575499,0.2667930387942288,0.2870274985780734,-0.027977294850188,0.9679359077367866,0.3971661187556826,-0.1170721427322033,-0.2262277776271135,0.1358302930956611,-0.083976034499448,-0.4727605599739416,0.2821388942179067,-0.4500177783935584
123,142,-0.2186627696789871,-0.0499828616398301,0.0337693463467565,-0.6560050405265181,-0.4663704853408257,-0.47567785644836,-0.1358170183970636,-0.5332387469000526,-0.2715231296348456,-0.2192768302395975,-0.0224682688792088,-0.2143272312139272,0.0684615974736306,-0.1681284079492274,-0.4636929367273233,-0.2576529050770111
124,143,-0.1096445480178158,-0.2695808141538509,-0.257910202664823,0.8244965549416323,0.2287932484538713,0.2381974373796861,-0.0520975502377317,0.2794554599132102,-0.3496615194980896,0.0093945516002529,-0.4435537011586768,-0.209603653038958,-0.4307903368567883,0.103019443400638,0.3139305471765021,0.1975227893107334
125,145,-0.1891081853987404,-0.0544082451140175,0.222891537126697,-0.2518156503905825,-0.3566707906790652,-0.3611203639359371,1.0593434817994634,0.8148651851403175,0.1288498033609151,1.5225833216623852,-0.0555421271723,0.3661295720169721,-0.0458723064515536,-0.6987965211135001,0.6058152597286509,-0.2264011882532744
126,146,-0.2866260109609791,-0.347316250331307,-0.4112812129315006,0.0827810459998436,0.0480382507566267,0.0577945257773537,-0.2224206153598028,-0.0338320654179844,-0.4788517761793827,-0.3796376576702048,-0.4716813367438643,-0.4843333110847423,-0.4684156914407452,-0.6068002336900972,-0.0669756157309375,-0.3217322402210645
127,147,-0.7271566807704286,-0.769754492122337,-0.4325291466688232,-0.4115779241082584,-0.5986037135401877,-0.615374806117827,-0.5667582968720224,-0.6049344098043717,-0.5545385281342422,-0.383706782084788,-0.2330333672517323,-0.4489337177363843,-0.19831914038225,-0.7665468541394813,-0.5470692249578665,-0.4256288331754037
128,148,0.6152712602018595,0.7182862469998402,0.0451446042432392,0.4071917272114967,0.0889800882741187,0.0906600129361503,0.248588674972663,-0.1933562082872759,0.5297418319459736,-0.0722648491005114,0.178474313671162,0.3603707872399188,0.2186261759789838,1.2834622411099452,-0.0868237977704493,1.102654588097605
129,149,-0.5270113281599489,-0.3884079128498967,-0.350626615441661,-0.2565345110243802,-0.3928320517343552,-0.4022374638994353,-0.3328701613347929,-0.2738912560179603,0.2140902428529708,-0.3243577908936246,-0.2484447104669629,-0.0856467102095072,-0.0037134531589501,-0.1916806956484813,-0.3489407377139905,-0.5152055429880752
130,150,-0.0945857061592457,-0.0060445016331926,-0.1947482610601235,-0.1753601800526245,-0.1617767732440004,-0.1619945748963694,-0.0948926981210379,-0.3845995348514692,-0.3748786660475693,-0.3892576551302283,-0.1235690494534384,-0.2514403638214934,-0.3956215713189733,-0.4450350062054051,-0.2451342637396069,-0.1609181116134855
131,151,0.1940118963199162,0.0040218150752776,-0.0510024618302649,0.0607910517944752,-0.083612962805663,-0.1005909057091394,-0.1144276870845714,-0.3262231198549906,-0.4343510782773177,0.2375900398648964,0.3808812482227366,0.1368788176938846,-0.0012922056686637,0.0573334672743007,-0.0702890026665072,0.2748524642240573
132,152,-0.4501569929041863,-0.2689225605417752,0.7011217968168674,-1.293392614125679,-0.2132427755252051,-0.2080790277306592,-0.2880919860290518,-0.0619616934888361,-0.3971661738703078,-0.4586889410424377,0.3025505940718985,-0.3774724020519683,-0.0753986114367312,-0.8306333970915436,-0.3087922474864175,-1.2558411185403169
133,153,0.4707506905129128,0.7575384038348295,0.1988473063324114,1.1367112672528332,0.7894563314877082,0.8209799481675467,1.3590205880563924,1.6366763378955551,0.9406436152559978,1.4465709541510312,0.5451284409469435,1.2638211463232063,0.3324066124700862,0.3930861180961867,1.7682341083234845,0.5824391128004245
134,154,1.6739324309766748,0.8489900455325285,0.4293634926566264,1.1798427308773172,0.6532259865166997,0.6743984513189373,0.3037449141138943,0.5734652267480301,0.5328572774076479,0.6311284681778024,0.0623565049626694,0.5536511790135087,0.239405759571858,1.346931380744261,0.5168469219167823,1.283536044235843
