,PatID,"$RadiomicScore_{LASSO,1}$",Pet_original_glszm_HighGrayLevelZoneEmphasis,Pet_original_gldm_DependenceEntropy,"$RadiomicScore_{LASSO,22}$","$RadiomicScore_{LASSO,13}$","$RadiomicScore_{LASSO,14}$","$RadiomicScore_{LASSO,49}$","$RadiomicScore_{LASSO,48}$"
0,1,-0.0982920017353286,0.5564125331255985,0.3321031101081432,0.0108581506912344,-0.147852957598242,0.0202666546362729,0.0098789875167518,0.1278579524308185
1,2,-0.1153137640732424,-0.7217866522469958,-0.7831330634118653,-0.5664933083658799,-0.4434047251191371,-0.6781549654323297,-0.6994289450146363,-0.6643619609669673
2,3,0.2737980366647239,0.382158592600953,1.492497577342823,0.2771552769972284,0.1470746529799938,0.325506326973554,0.3312412250248353,0.2967804086007091
3,4,-0.2166560926925214,-0.2600097182635034,-0.1530388704771366,-0.400183818064325,-0.4657254197133452,-0.5100107011258678,-0.6110582988117286,-0.6080899623625051
4,4_2,-0.9453332282121614,-0.3744307561457556,-1.3201771794824495,-0.5181453495890868,-0.4851139524375902,-0.5837631511911915,-0.4940749832933803,-0.6255015402983004
5,6,-0.0999643435885051,-0.5787186055076023,-0.7176833170625038,1.080492469822717,0.8031169074373823,1.618592291683823,1.8655501398581675,1.5434685290922654
6,7,-1.200345619089071,0.3253178693905983,-0.7699853092666574,-0.8246471514450902,-0.6786412709340306,-0.7566392784652227,-0.7923122271497687,-0.7659516284376389
7,8,-0.5719828180258465,-0.4226462660271854,-1.3648339607560394,-0.3719114421881266,-0.4261579286320767,-0.5639778001288875,-0.4494175396768681,-0.5497726867310505
8,11,-0.2921537898764364,-0.0428585488786566,-0.1001740519515465,0.2113242313728847,0.0438184536225993,0.2619140312523511,0.3846099958367761,0.2507171285436583
9,12,0.2036927959396862,1.201834289493098,1.0266264257284383,1.0233027108094424,1.1525661192441066,1.4472538010152174,1.457853373907372,1.4841435874988111
10,13,1.1056200280524244,2.809633283591516,1.7336345263062585,0.6340340124488035,0.4644442834168935,0.4464241136314127,0.2742449501761341,0.6997103291863299
11,14,-0.8040921192158675,-0.6671647894999094,-0.4806218604231315,-0.7451492569876164,-0.5354819447817362,-0.7321302346652373,-0.7719554160627069,-0.7842746000535593
12,15,-0.3481864970237337,-0.3341683485726968,-0.1967906047765451,0.2998248095007355,0.1505912169972626,0.5295849676222537,0.5990377682982455,0.4111241627119351
13,17,-0.5398140558080526,-0.7733277929978694,-0.1327933732815192,-1.0532286144626388,-0.7187241051176105,-1.1923645240965552,-1.236238295917826,-1.1421488836166491
14,18,0.3741424413087384,-0.4768351457953326,-0.0597477440042672,-0.2210335341186066,-0.4135907381225541,-0.6049092875240673,-0.5572388699669002,-0.5748371647515035
15,19,0.8183111965899832,-0.8297655624025699,-1.060802889303437,-0.1267035145324678,-0.2096408714381036,-0.4298946123167547,-0.4166441156257646,-0.3298935879526662
16,20,1.2488563520000564,-0.1704291006674382,0.5518132347562593,1.2151947214608272,0.640690036784264,1.3802657678452217,1.3931926787252042,1.237595596953772
17,21,0.8671374852423449,-0.0553117212450667,-0.1879886657462756,0.3976653027931272,-0.2113066768978769,-0.2094899692126277,-0.1046269246018832,-0.1923253212473093
18,22,1.452573582536649,-0.6401858081565546,0.2995171794577605,0.3549136544489605,-0.1506858404607379,-0.2481229298829456,-0.2475293150235689,-0.2336601016639048
19,23,0.5747112872576302,-0.1462373677799905,0.5745319994077187,0.825106088198107,0.422982488881,0.9035816780993507,1.0101896917590438,0.8236593045848076
20,24,-0.5661874989720024,-0.6881365931899357,-0.0390669559789301,-0.2913934585348927,-0.1275420840898426,-0.0510806070726088,-0.0578243343253463,-0.0791778206749313
21,25,-0.9944848234383734,-0.7099743297735742,-1.8426472538076628,-1.732107898537194,-1.160025478979554,-1.9975130762499256,-2.022582508343448,-1.8902534471845795
22,26,-0.2516155306212436,-0.4564297330454364,-0.0588395729394679,-0.217719034669914,-0.3094766116371019,-0.3133770755359216,-0.2689073566991806,-0.349634556091026
23,28,-0.838910735031186,-0.4888589285971146,-0.386777980060917,-0.9420108051580092,-0.6705189040663647,-0.955454123814023,-1.014178395718926,-0.9620397050936546
24,30,-0.392244383602776,-0.160818606096104,0.5398097227270814,-0.2217821255991557,-0.2139184395601518,-0.1188077491299414,-0.1561348122163196,-0.1919620461036567
25,31,-0.6762931244046947,0.2886451069798852,0.2217007277022874,-0.7399948626889876,-0.6697856691183006,-0.8518475394295313,-0.8619284670779571,-0.7537168585714171
26,32,-1.55374179226871,-0.8660049703143899,-2.536510024970442,-0.5237972768686695,-0.1827829291691196,-0.0989197697977006,-0.0664814774709621,-0.1718561748032365
27,33,0.1435412308591564,-0.4280043483057849,-0.1008807723818988,-0.098031009741522,-0.2557057352324684,-0.1998859021224326,-0.2504983551996917,-0.2746194702173109
28,34,-0.0972187837850307,-0.8656894801395878,-1.088006005784179,-0.5099380505797172,-0.2480498799804283,-0.3565794044718672,-0.4844331231567058,-0.3629111775529341
29,34_2,0.4395230907218668,-0.2211420859535172,0.7988910875652878,-0.5216948355663148,-0.6439880546956674,-0.9778590236581196,-1.000830343256396,-0.9361535039995962
30,35,0.7151929017239972,1.1586680457141705,0.3149382089347676,0.4020377000058452,-0.13045202340989,0.0611914166071441,0.0323045074962586,0.1826965147279868
31,36,-0.2021820036805865,-0.3975847006597119,0.2952383618399875,-0.3024296667691408,-0.3547829008413473,-0.3422056557391063,-0.392754363817982,-0.4198791950394541
32,37,0.7102004651954694,-0.1549864951364628,0.7856960425119499,0.6469051267297005,0.2377516198963198,0.5653108548975951,0.642227332398283,0.5249458653633116
33,38,-1.0899820249131595,-0.6026945716429634,-0.7222285871440776,-1.0701813270813314,-0.7384760747897332,-1.0942225396619245,-1.1121540911997403,-1.1039905471053602
34,42,-0.7282679343188868,-0.7482723815388027,-1.1092761268779578,-0.6219273336839259,-0.4751416634530986,-0.6164636362173485,-0.6483763742577116,-0.706207976264063
35,47,-0.7616415052946682,1.760207757994578,0.6024990132498486,0.502217974242273,1.6167792392122848,1.2068225262982022,1.1363460253365607,1.1601320958785053
36,43,-0.33076377747301,-0.4190222936724878,-0.5436708631265355,-0.7437709859783586,-0.6607584557536365,-1.0338406968381204,-1.002529920597389,-0.9637235699435246
37,44,0.0563574552490442,-0.7043523179364711,-0.3952508045955488,-0.6038155398198024,-0.522002489071285,-0.8192118675071791,-0.8760329963755465,-0.8257244590618005
38,45,0.131121496329276,-0.1475382075256446,0.4680653576969332,0.6138903719613799,0.3605897877969007,0.7959355488420042,0.9256880099745654,0.773373900567599
39,48,-1.3958360555559075,-0.7978406683294567,-1.861299984749471,-0.8459206324663603,-0.4900250629728313,-0.628746584260595,-0.6412688478943467,-0.7109319207639783
40,49,-1.0136289832558465,-0.7915318635625912,-2.288118756837964,-0.7104829790431789,-0.5023623831686274,-0.8233670910981331,-0.6677462816279284,-0.7411645702214157
41,50,1.006702917766418,1.7103392484476103,2.007359170291975,0.9799510377432548,0.8997193030358099,1.04737862255695,0.9614370977064294,1.117891671436804
42,52,0.6587837446807802,-0.4162024504490759,-0.0154775613479703,0.5854768357585327,0.2392857379710061,0.552914565014913,0.6511367655752914,0.5598789864134128
43,53,-0.2230661908013367,-0.2227066503535726,0.4699768961982604,-0.6000795829799023,-0.6172289349426369,-0.8231697426023246,-0.8588911288131101,-0.8317226034585844
44,54,-0.2676786447241461,-0.3044204755663808,0.4862422677129521,-0.6237383112071813,-0.5615473628454007,-0.7716075170686296,-0.8030438819101434,-0.740648577113481
45,55,0.5341412266023058,1.8212060629445097,1.9439248808613507,0.676282068704621,0.8706618615665899,0.9594988393969616,0.7894601139455439,0.910309061312786
46,56,-0.1942122577340959,-0.6528174711750093,-0.4870317162407575,-0.5204026433550214,-0.4199113608393291,-0.6571804507676755,-0.6416735458395627,-0.6154710190645276
47,57,1.1024877690464054,3.610727230467279,2.2030274489979296,1.2407012996521984,2.717736962055071,1.6422135877002118,1.3856606261042126,1.7720644445929956
48,58,0.1188910159964956,0.9907423474278222,0.9552007727114816,-0.6267807609725811,-0.7718786350990184,-0.8602440350636029,-1.031616422236641,-0.735119415868233
49,59,0.546485197994878,0.2216981287944492,0.2308509921213992,0.4094486325675264,-0.0891160800273419,0.0363409551360888,0.1262311577495997,0.0636336019506526
50,60,0.0501765449629151,-0.3197594198631988,0.0463125643749946,-0.0643678124630152,-0.1537458251663688,-0.0646110677409276,-0.0579868417731921,-0.0842957922818652
51,61,-1.0015394729601976,-0.6765916022095712,-1.0209003559796213,-0.6996905335638758,-0.5101623675643684,-0.6669336107888257,-0.63963773447161,-0.7178448783407385
52,62,-1.2138230829327947,-0.5919351854525737,-1.108768786278215,-0.6627161130531678,-0.4554432382912496,-0.638045783695167,-0.5111184162010327,-0.6194668906663647
53,63,1.135826667077852,0.4278293137235744,0.7924621444536354,1.4668293466685818,0.9835163498841551,1.4965177769641236,1.5941817285754942,1.4272384610292896
54,64,2.1938130695955205,0.1923136954069089,0.0599825493427484,1.8258262156777831,0.6520344078596426,1.2341369979430796,1.3732217527769397,1.176743448411
55,65,-0.5059289870531037,2.403079267066461,1.1376195073377584,-0.1381057158048052,-0.0534278097260103,0.1366857733874303,-0.0542270051600429,0.3626866399273471
56,66,-0.2163184622146471,-0.3226349879168307,0.1134219065047781,-0.2561903386439912,-0.3278568635775797,-0.3552284544117947,-0.3234546434198206,-0.3653587239281504
57,67,-1.407875407802719,-0.8203257201458496,-1.7878010752580051,-0.4883531031330494,-0.1018959699925114,-0.0641073334283978,0.0032074822236403,-0.0358340560677928
58,68,-0.8788520642628028,-0.6429650689795234,-0.9466734543375216,-0.530165923971172,-0.367066172224813,-0.4920176420462436,-0.414258120536152,-0.4881226771375279
59,69,1.516127932838608,-0.1417545552047152,1.2184241952409471,0.5215739204236662,-0.0290705983035773,0.1730422478037637,0.0713183364614524,0.0842908660999769
60,71,-1.160470968406062,-0.8075308460037293,-1.5785541424924494,-1.0145302313550273,-0.6338800118484252,-0.9969810798247,-0.9743257036537512,-0.9699795743201968
61,72,-0.8699048177573621,-0.2013043845630443,-0.9700827366551908,-0.3907423571647921,-0.3965617032668958,-0.3680609264788571,-0.3251178441188367,-0.4384256146314642
62,73,-0.8726886221417336,-0.9252955495998908,-2.2860654474457807,-1.2717117847984387,-0.5122837890528193,-0.8869323515981573,-1.134118994660413,-0.8103941973546626
63,74,-0.5357120904715849,0.0162122397388954,-0.803335871648382,0.1590870519504532,-0.0119143448166422,0.1921331603318455,0.372045093809828,0.2530947746041486
64,75,-0.4398121249915532,0.062364187108867,-0.3834538829708574,0.0913155744077048,-0.0936651925526569,0.0536373809305288,0.1972798770936261,0.0881065357019533
65,76,-0.422373190942596,1.3154403756143185,0.7555788462802888,-0.0525308908454505,-0.1199128752326152,0.2072343409777848,0.0425657342490368,0.2506775316951366
66,77,-0.1676045511404199,1.0979043541706768,0.8911708311884741,0.1147027624556149,0.001595017878422,0.3651649256608286,0.1772411184042338,0.3311659480470523
67,78,-0.1687477005214045,-0.2595549804761106,0.2908499293882768,0.3371792727396466,0.2259214249621502,0.8228630994240106,0.6848742308282569,0.5875068377608776
68,79,-0.0543965123120851,-0.089487222040632,0.1836948262110005,0.5719692343966628,0.2964234416393307,0.7617965398373927,0.8340220088248046,0.6654007275078371
69,80,0.1266869006202138,-0.6625181762628032,0.0551081688544439,0.3615425395200745,0.2200484958442604,0.5302907367283384,0.6004157882743432,0.4902360812681477
70,81,0.6523382431109085,-0.1715765615851869,0.5150934510036685,0.3632023052980888,0.0863427182739532,0.3449533733268705,0.3403967052821478,0.3164944038587057
71,82,0.2713315726440027,-0.53385827588519,-0.0262262424268721,-0.8298715914331889,-0.7584585785695039,-1.2305242412863435,-1.309341212308521,-1.1956740652521904
72,83,-0.4698802459903046,-0.4672728744220046,-0.1609860441624577,0.2963397927688089,0.210167844219193,0.5776314257732647,0.675667468146878,0.5149180009720222
73,84,-0.3874870718134969,0.2937070709022616,-0.4272806065749807,0.204269450228137,0.0069559912304612,0.3327487126626559,0.3778238324275504,0.2983299418255374
74,85,-0.8302100553392116,-0.3076760016228452,-0.0288166069825867,-0.2260416516543915,-0.2124876270565743,-0.0635832017437553,-0.0362506182985292,-0.1372784596114694
75,86,-0.0076168031653752,-0.2168068324432727,0.1978635190030078,0.0757218380007922,-0.0836445490554808,0.0427038473218282,0.1102931879953615,0.0354513187236771
76,87,0.5908778568946975,-0.6264689500395485,0.3455499272512938,-0.0561048554537437,-0.2170833813169668,-0.3032273396898491,-0.3037085587342223,-0.2904616832707331
77,88,0.5680044906359688,-0.4452082402559199,0.2430717558804166,-0.3672478034863515,-0.4531313149671247,-0.7232681299105216,-0.7490831558493481,-0.6826223302322458
78,88_2,-0.1703856480833825,-0.6505074090466662,-0.0790114391382387,-0.7945840705225515,-0.6782361704027403,-1.1309792631937063,-1.1024174884896345,-1.0609631346784316
79,89,-0.7647444737737367,0.069913053686755,-1.0077084338658664,-0.5135864013777754,-0.4781832766588811,-0.5839455408368605,-0.516732552628145,-0.5236154354141627
80,90,-0.2786969253513642,0.0292526315401293,0.0400501275533442,-0.5969307451452334,-0.5988616323283329,-0.7088533749888423,-0.8209936524414394,-0.7303061552115726
81,91,0.3178348069587419,4.746995723447373,1.1748585664538655,0.8351271633621946,4.196697519789771,1.3324668183665755,1.148987631017811,1.677789732809703
82,92,0.5492690621175934,0.58920809923916,1.3044687288611074,0.3020779774118668,0.1271477526030741,0.1942036636608843,0.2353050651354754,0.2598537105816551
83,93,1.1056222122557635,-0.1078785993321617,0.8456622378039323,1.5704546411452764,1.1005894399436835,1.871890857386297,2.0212072974718085,1.7799740026174768
84,97,2.155233439355784,-0.5032662284238528,-0.244597809249674,2.8196568366058314,1.932493456941772,3.680731039388666,3.850222615181029,3.4561039535811995
85,98,0.5634132377212034,0.0397596391411609,-0.3353303416576687,2.293392917895211,2.046128138888696,3.578907460332645,3.777616903151154,3.333935123280505
86,99,0.2938697154502061,3.241973613821645,1.8139223983955333,0.6717138350685663,0.9851112271307684,1.03523219665828,0.820187651059184,1.291934873494538
87,100,-0.4623540154071281,-0.5582979760545466,-0.6408108272625993,-0.6147988793433498,-0.541503791845811,-0.813607648319427,-0.7765329026071044,-0.7949858727557124
88,102,-0.1716133186377711,-0.5452998516701004,0.0411667775352263,-0.3955547886268361,-0.4037847517020173,-0.6196620848063227,-0.5556431222477752,-0.5715723943951483
89,102_2,0.3553738638904776,-0.7341791737919253,-0.8320193363759497,-0.579409423853069,-0.619455260063738,-1.082689390169841,-1.0196513509271592,-1.0094258365475852
90,101,0.2344506145850554,1.9772173174639376,1.8162201510387936,0.6815216688402576,0.9124609775815464,0.9893252554726352,0.9157399935406684,1.0794381316676334
91,103,0.0191087077689346,-0.5216751840625699,-0.3176069635730435,-0.2580774894459371,-0.3941669898914839,-0.5895024408688501,-0.4673926131954038,-0.5653919140043966
92,104,-0.6804939831227335,-0.5379876415245834,-0.6594653559246129,-0.8712289655187557,-0.6954419728633836,-1.0254899084703488,-1.0284645423762118,-1.0529843899079352
93,105,-0.0225839852562211,-0.6777437664786574,-0.3209165074371709,-0.5769122077644404,-0.4770035837793685,-0.7635751199745148,-0.7850670573035651,-0.7310617497340968
94,106,-0.5741065354462651,-0.7027189000583982,-0.422826326006903,-0.4362291797702757,-0.3194807382669309,-0.3497335365375106,-0.3790659201388174,-0.434141540744049
95,108,-1.014521868389895,-0.7078167969799916,-0.9304028384368012,-0.4218223525657727,-0.2366398298104369,-0.210943526088255,-0.164536121149985,-0.2733169510152378
96,107,0.9305935072162804,0.2081707903803026,0.9753663920559728,1.550658118278969,1.1024450023011214,2.0651129030777704,2.0863945359458174,1.8903376242651768
97,109_2,0.2171562819780161,0.544984450590456,1.6250637900109204,0.5031905433220333,0.4127952619328657,0.726062802240841,0.6721463152240125,0.6529538094462363
98,110,-1.2041537595083842,-0.8184816704564808,-1.9441472693057824,-0.9620997278848828,-0.6046463050922144,-0.8434265292531096,-0.9017036814694136,-0.9315075229834304
99,112,-0.0949212329351191,-0.6393725566671485,-0.474465586945082,-0.4606163259337497,-0.4783325203569485,-0.7539590513170601,-0.6696741451274354,-0.7241514168311116
100,113,0.5546737675178799,-0.1216156263492463,0.1480770151320446,-0.3228483474540305,-0.2786923061148351,-0.3605303863499436,-0.4384565830222126,-0.2895643938449273
101,114,0.0220303732859497,0.067614296789847,0.2745387809786116,-0.4175780528871533,-0.5914817379018088,-0.715363199938768,-0.7986699497954515,-0.7471733733161333
102,115,-0.3415239048550527,-0.3204877890005713,0.0318703774092499,0.4448087322629778,0.2762496413223399,0.7150117685250635,0.8119435192751989,0.6588523114077341
103,117,1.2389576184489195,1.6120374073575363,1.966867888449277,0.8171702905240041,0.4190887845317077,0.7023450212632599,0.5563736125759098,0.7624178664828596
104,118,0.9119203095689198,0.3026067926529612,1.327200396065073,0.3785844302238172,0.0377375015057882,0.2635443319129332,0.2237064571905641,0.2703140077909648
105,119,-0.2402794321872024,-0.4351457242679783,-0.2828601694693867,-0.0938531729674519,-0.1560478578139641,-0.0734600619171619,-0.026107051232981,-0.091250270770431
106,120,0.8644753723328278,0.7256863007846941,0.9878889906305408,0.7157944231954375,0.1769775484107126,0.3080529927310368,0.4042155851387223,0.3847482349234504
107,121,0.192855823531163,-0.4578188204588164,0.5975862476056495,0.024377887192537,-0.155632269621928,-0.0961912857560443,-0.0820405294838256,-0.1254809996838428
108,122,0.4019518047697739,4.071766942119212,1.4071820563419557,1.2701420865568045,4.782799692014744,1.9063071893152344,1.7400288252920302,2.193282914898039
109,123,0.2406611038105593,-0.1840998237428913,-0.1797344159550804,0.1915704903837156,-0.1493626229772569,-0.1228441025291827,0.0490642317273844,-0.0933663467061513
110,124,-0.4335018443303557,-0.8251024156272905,-1.2052088798068683,-0.8241487372094569,-0.5546519027754627,-0.8596600304572647,-0.9440117580734896,-0.8758499603634045
111,125,-0.8036465197550111,-0.3911674206562808,-0.3671932767097615,-0.0494968518358986,-0.0686786265609403,0.0274411768639163,0.2219578703842091,0.0613661243105459
112,126,1.0648874702961444,-0.9044894705178076,-1.855464103949252,-0.1657963645809242,-0.2046750054635371,-0.4735639120004719,-0.5081170054427957,-0.3511303206448107
113,127,-0.1947156178639926,-0.4293266008565845,-0.8421076333008874,-0.2827863264749027,-0.3404699663272428,-0.3450364848763247,-0.3954217017918137,-0.4163954830626866
114,128,1.1343970838951691,0.397880561584978,1.6523889597050114,1.1105383864209544,0.6085013947991231,1.1696269330492015,1.1171990451892162,1.0439889105530191
115,129,-0.4095505986653481,-0.3929629588821467,-0.239927160447953,-1.0425256969174774,-0.8781664622559934,-1.4211517681927528,-1.377004669075763,-1.327624519388032
116,130,0.088915219307214,0.1014602459878758,1.1861951512530142,0.4429822113115365,0.2615758266170822,0.5556863754308099,0.620830839874712,0.5358819230572136
117,131,0.6320505063636052,-0.2150243565366985,0.0964959741942107,-0.1170052144184795,-0.4149289810957505,-0.5722600666376924,-0.5533980253651829,-0.5575179116551897
118,132,-0.5694283325288442,-0.8327402008369339,-1.279677033607675,-0.7595218878635572,-0.4857720932125096,-0.7361529040210782,-0.807540259227801,-0.7534291210898946
119,133,-0.9725605931555668,-0.8957827466927323,-2.2076877277931124,-0.8587735587639669,-0.4166122511276447,-0.6282363889448762,-0.7110170950983626,-0.6249551716960577
120,134,0.5384001420877413,-0.5186391327771369,-0.3979814852266045,0.1525229960033747,-0.285508200582772,-0.4364865738910922,-0.2957298225493354,-0.3924544657660497
121,135,1.290308494691502,-0.0770941620051047,0.9524104561840278,1.1759518326373275,0.670100486436281,1.2960165600801532,1.3437482716865916,1.2052167960893108
122,137,-0.5429318733463883,-0.7152654891133414,-0.561023359874653,-0.3541756314792649,-0.1705767623895613,-0.061664741713074,-0.1646589693435682,-0.1794988602170117
123,138,0.2549384353722773,-0.4717077328428368,0.054684983505916,0.4554554511515733,0.217710522081877,0.5424827981268153,0.6378454974761861,0.5096151602729008
124,139,-0.7239914392034446,-0.1511935863843725,0.0731454440595596,-0.0838184330442155,-0.0466270770732726,0.2717550221786898,0.2339255677647521,0.1633707089868351
125,140,-0.1628853159709385,1.0010938859296614,1.217882704149058,0.1525332708972208,0.1151268031615417,0.3103309931831134,0.2689348873812778,0.3874474350022326
126,141,1.492567391877409,-0.4210774117278688,0.5512018864209746,-0.3087731851269958,-0.5680437524068104,-0.9524195788821084,-1.038227768903562,-0.8976382424441723
127,142,-1.230689754809551,-0.6386587647106768,-0.534379524267058,-0.6049092076603597,-0.329413260487264,-0.3367550911805874,-0.349861011991197,-0.418384877537397
128,143,0.6306498975394101,0.8055267728468997,1.7276474122768517,-0.1989611820583257,-0.4624195830540281,-0.3651296716139696,-0.6115733576597933,-0.4083231063873467
129,145,1.0477559059924693,-0.7010913770634979,-0.0255330307024641,0.1319927652988554,-0.1565633885319282,-0.2346143101712745,-0.2593684229637376,-0.2255978991867152
130,146,-0.3273293630056937,-0.5370723316468093,-0.548270784691806,-0.1044333762997288,-0.1766130974804948,-0.0246611679989184,-0.0428660559933584,-0.1416154827871049
131,147,0.601902024678776,-0.4697688179913659,-0.2526530772010804,0.2084333917993941,-0.104112301260972,-0.057323714787253,0.0311011906277667,-0.0543555647906877
132,148,-0.1679076755688121,0.793416190413296,0.9763926545021974,0.2620579859189926,0.1275518629862319,0.4887538551274191,0.4290752536165025,0.4901710139332739
133,149,0.8756275376363036,-0.3918100079745953,0.0837983557735117,-0.3493202007267759,-0.6371924171401837,-1.0270823914132636,-1.0146442342987636,-0.9800867091992632
134,150,-0.7270875156265393,-0.2507288123945275,-0.455829359168667,-0.1205775064164011,-0.1333969045957459,0.0182436155280349,0.1039646317593771,0.0039775912601704
135,151,0.7012812112421271,0.7802165634361858,0.6260969102320161,1.3818740065482586,1.0462447846939191,1.7485989541520992,1.7811510243280977,1.6423131415307972
136,152,-1.3142859734524048,-0.8729730402184604,-1.9784728614169576,-1.2196475083687033,-0.6808051867278031,-1.1109744087687132,-1.139726296842584,-1.070799429126404
137,153,1.4694589821146702,0.1149988351572376,0.988350049406836,1.1091072761353302,0.388838560258348,0.7826137091261534,0.8482185327601027,0.7441345406626373
138,154,-0.1578228101248583,2.429280502871969,2.0100810382382264,0.274633421348431,0.7704901469983572,0.5892111801966227,0.4374188820847858,0.797657517074845
