,PatID,PFS,LOST_FU,RECURRENCE,Age,Sex,Grade,Censored
0,1,35.0,0,1,36,0,3,0
1,2,2.554074074073287,1,0,48,1,2,1
2,3,73.76666666666667,0,0,58,0,2,0
3,4,13.766666666666667,0,1,37,1,2,0
4,4_2,58.5,0,0,40,1,2,0
5,5,42.23333333333333,1,1,27,1,3,0
6,5_2,26.03333333333333,1,1,30,1,2,0
7,6,72.8,0,0,58,0,3,0
8,7,67.4,0,0,48,1,2,0
9,8,71.13333333333334,0,0,34,0,2,0
10,9,80.76666666666667,0,0,47,0,2,0
11,10,34.63333333333333,0,1,35,0,3,0
12,11,79.66666666666667,0,0,42,1,2,0
13,12,31.5,0,1,48,0,2,0
14,13,34.266666666666666,0,1,77,1,3,0
15,14,48.6,0,0,27,0,1,0
16,15,42.66666666666666,0,0,61,1,3,0
17,16,28.566666666666663,0,1,57,1,2,0
18,17,69.38664351852009,0,0,38,1,3,0
19,18,2.1333333333333333,1,0,51,0,2,1
20,19,82.86666666666666,0,0,48,0,2,0
21,20,20.83333333333333,0,1,48,0,3,0
22,21,68.66666666666667,0,0,59,0,3,0
23,22,26.8,0,1,40,1,3,0
24,23,39.13333333333333,0,0,55,0,2,0
25,24,87.26666666666667,0,0,26,0,2,0
26,25,10.533333333333331,0,0,54,1,2,0
27,26,72.7,0,1,46,0,2,0
28,27,34.3,1,1,62,1,2,0
29,28,1.4333333333333331,0,0,52,0,2,0
30,29,1.6333333333333333,1,0,67,0,4,1
31,30,63.38627314814657,0,0,61,1,3,0
32,31,55.36666666666667,0,0,42,1,2,0
33,32,48.0,0,0,31,0,2,0
34,33,35.333333333333336,0,0,44,1,3,0
35,34,49.93333333333333,0,1,38,1,2,0
36,34_2,9.5,0,1,42,1,4,0
37,35,2.066666666666667,1,1,81,1,3,0
38,36,59.56666666666667,0,0,39,1,2,0
39,37,71.16666666666667,0,0,32,0,3,0
40,38,3.6432870370367407,1,0,21,1,2,1
41,39,9.666666666666666,0,0,44,0,3,0
42,40,27.83333333333333,0,1,35,0,3,0
43,41,22.6,0,1,49,1,3,0
44,42,39.36666666666667,0,0,35,1,2,0
45,47,26.933333333333334,0,1,48,0,2,0
46,43,70.53333333333333,0,0,45,1,3,0
47,44,71.1,0,0,42,0,3,0
48,45,7.7,0,1,35,1,3,0
49,46,9.3,1,1,45,0,4,0
50,48,0.7,1,0,43,1,2,1
51,49,32.4,0,1,35,0,2,0
52,50,2.7666666666666666,0,1,34,0,3,0
53,51,8.466666666666667,1,1,28,0,3,0
54,52,100.0,0,0,34,1,2,0
55,53,1.8333333333333333,1,0,41,0,2,1
56,54,68.18715277777665,0,0,60,1,3,0
57,55,46.46666666666667,0,0,41,1,3,0
58,56,37.06666666666667,0,1,37,0,2,0
59,57,40.82030092592662,0,1,50,0,3,0
60,58,44.96666666666667,0,0,54,1,3,0
61,59,30.3,0,1,43,0,2,0
62,60,17.2,0,1,48,1,2,0
63,61,14.833333333333334,0,0,40,0,2,0
64,62,57.23333333333333,0,0,53,1,3,0
65,63,45.833333333333336,0,1,29,1,2,0
66,64,11.0,1,1,40,0,3,0
67,65,0.9,1,0,54,1,3,1
68,66,81.0,0,0,57,0,3,0
69,67,33.63333333333333,0,1,53,0,2,0
70,68,31.466666666666665,0,0,52,0,3,0
71,69,24.53333333333333,0,1,43,0,3,0
72,70,7.7,0,1,40,1,3,0
73,71,25.2,0,1,31,0,2,0
74,72,44.08719907407333,0,1,58,1,2,0
75,73,82.4,0,0,49,0,2,0
76,74,41.66666666666666,0,1,45,0,2,0
77,75,76.13333333333334,0,0,34,0,3,0
78,76,39.06666666666667,0,1,40,1,2,0
79,77,7.266666666666667,0,1,28,1,3,0
80,78,2.8,0,0,30,1,3,0
81,79,24.33333333333333,0,1,55,0,3,0
82,80,31.766666666666666,0,1,30,0,2,0
83,81,87.76666666666667,1,0,44,1,2,1
84,82,84.23333333333333,0,0,39,1,2,0
85,83,40.93333333333333,0,0,54,0,3,0
86,84,27.587430555556782,1,1,42,1,2,0
87,85,32.766666666666666,0,1,41,0,2,0
88,86,7.866666666666666,0,1,41,0,3,0
89,87,14.933333333333334,0,1,73,0,2,0
90,88,13.053402777776745,0,1,36,0,2,0
91,88_2,44.86666666666667,0,0,38,0,2,0
92,89,2.8,0,1,37,0,2,0
93,90,31.7,0,0,35,0,2,0
94,91,25.7,0,1,42,1,3,0
95,92,15.233333333333333,0,0,42,1,4,0
96,93,38.266666666666666,0,1,48,0,3,0
97,94,37.6,0,0,31,1,2,0
98,95,16.366666666666667,0,0,39,1,3,0
99,96,40.56666666666667,0,0,65,1,3,0
100,97,89.53333333333333,0,0,58,1,2,0
101,98,42.2,0,1,42,1,2,0
102,99,33.92037037037007,1,1,50,1,3,0
103,100,51.8,0,0,29,0,3,0
104,102,24.466666666666665,0,1,27,0,2,0
105,102_2,11.733333333333333,0,1,30,0,2,0
106,101,28.166666666666668,0,0,75,0,3,0
107,103,21.633333333333333,0,1,33,1,2,0
108,104,61.21245370370331,0,0,29,1,2,0
109,105,26.4,0,1,24,1,3,0
110,106,35.03333333333333,0,0,30,1,3,0
111,108,60.45381944444331,0,0,49,1,2,0
112,107,45.53333333333333,0,0,35,0,4,0
113,109,13.0,0,1,23,1,2,0
114,109_2,54.2,0,1,24,1,3,0
115,110,45.2,0,0,32,0,2,0
116,111,26.3,0,1,48,1,3,0
117,112,59.06666666666667,0,1,29,1,2,0
118,113,86.2,0,0,41,0,2,0
119,114,50.333333333333336,0,0,39,0,2,0
120,115,57.06666666666667,0,1,47,0,2,0
121,116,3.966666666666667,0,0,35,1,3,0
122,117,17.0,0,1,61,0,3,0
123,118,47.1,0,0,36,1,3,0
124,119,87.13333333333334,0,0,30,0,3,0
125,120,54.96666666666667,0,0,51,0,2,0
126,121,75.53333333333333,0,1,53,0,3,0
127,122,28.133333333333333,1,1,65,0,3,0
128,123,53.96666666666667,0,1,25,0,2,0
129,124,40.46666666666667,0,1,27,0,2,0
130,125,40.266666666666666,1,0,71,0,3,1
131,126,2.2666666666666666,0,1,58,1,2,0
132,127,85.73333333333333,0,0,33,0,2,0
133,128,34.06666666666667,0,0,44,1,3,0
134,129,7.533333333333333,0,0,45,1,3,0
135,130,82.7,0,0,52,0,2,0
136,131,2.5,1,0,39,1,3,1
137,132,14.2,0,0,56,0,2,0
138,133,35.88712962963012,1,0,32,0,2,1
139,134,68.86666666666666,0,0,38,0,3,0
140,135,11.354097222223452,1,1,52,1,3,0
141,136,54.64418981481334,0,0,34,1,3,0
142,137,4.033333333333333,0,1,40,1,3,0
143,138,19.866666666666667,1,1,29,1,0,0
144,139,20.2,0,1,38,0,2,0
145,140,3.933333333333333,0,0,40,1,3,0
146,141,7.187615740739905,1,1,36,1,3,0
147,142,41.0,0,0,39,0,2,0
148,143,3.551064814813435,1,0,41,1,2,1
149,144,30.35370370370341,1,1,37,0,3,0
150,145,9.8,0,0,28,1,3,0
151,146,7.733333333333333,0,1,40,1,2,0
152,147,69.2,0,1,42,0,2,0
153,148,74.83333333333333,0,0,48,1,3,0
154,149,41.3,0,1,30,0,2,0
155,150,38.46666666666667,0,0,55,1,3,0
156,151,27.966666666666665,0,1,29,0,3,0
157,152,0.9333333333333332,1,0,29,0,2,1
158,153,2.4,1,0,52,0,3,1
159,154,1.9333333333333331,1,0,47,0,3,1
